kind: bootstrap_import

plugin_variables:
  join_strategy: Join
  variables:
    bootstrap_build_arch: "%{arch}"
    target_arch: "i686"
    install-commands: rm "%{install-root}%{infodir}/dir"

depends:
- liba
- libb
- junc

sources:
- kind: test_source
  digest: "app56789740a53b39a6862b86bc6c66d858a6810d2043f31f0fde25a9b702203626/1261"